%YAML 1.1
%TAG !u! tag:unity3d.com,2011:
--- !u!114 &11400000
MonoBehaviour:
  m_ObjectHideFlags: 0
  m_CorrespondingSourceObject: {fileID: 0}
  m_PrefabInstance: {fileID: 0}
  m_PrefabAsset: {fileID: 0}
  m_GameObject: {fileID: 0}
  m_Enabled: 1
  m_EditorHideFlags: 0
  m_Script: {fileID: 11500000, guid: 00abcce1ea904544aa9a34212d717d41, type: 3}
  m_Name: DefaultMap
  m_EditorClassIdentifier: 
  xSize: 8
  ySize: 8
  textMap: {fileID: 4900000, guid: 10f47f7357b351b4087bd344c4c604a7, type: 3}
