%YAML 1.1
%TAG !u! tag:unity3d.com,2011:
--- !u!114 &11400000
MonoBehaviour:
  m_ObjectHideFlags: 0
  m_CorrespondingSourceObject: {fileID: 0}
  m_PrefabInstance: {fileID: 0}
  m_PrefabAsset: {fileID: 0}
  m_GameObject: {fileID: 0}
  m_Enabled: 1
  m_EditorHideFlags: 0
  m_Script: {fileID: 11500000, guid: 2e60cc1a45725db48b0c2d26eba7cfa2, type: 3}
  m_Name: Forest
  m_EditorClassIdentifier: 
  ID: 1
  travelCost: 3
  type: 0
  material: {fileID: 2100000, guid: 00532f3f289df544198e61c7554a0365, type: 2}
