22040330220403302204033022040330
22210131220403303124233022012030
21200320220403302204033022041230
21413122220403302204033022040330
44413102220403302204033021430330
11204404220403302204033022040330
01311044220403302204033022040330
33310104220403302204033021430330
22040330220403302204033022040330
22210131220403302204033022040330
21200320220403302204033022140330
21413122220403302204033022222330
44413102220403302204033333342330
11204404220403302204033022040330
01311044220403302204033022140330
33310104220403302204033022210330
22040330220403302204033022211330
22210131220403302204033022140330
21200320220403302204033022040330
21413122220403302204033022040330
44413102220403302204033022040330
11204404220403302204033022040330
01311044220403302204033022040330
33310104220403302204033022040330
22040330220403302204033022040330
22210131220403302204033022040330
21200320220403302204033022040330
21413122220403302204033022040330
44413102220403302204033022040330
11204404220403302204033022040330
01311044220403302204033022040330
33310104220403302204033022040330